[
null,
{"id":1,"animationId":1,"description":"","etypeId":1,"traits":[{"code":31,"dataId":1,"value":0},{"code":22,"dataId":0,"value":0}],"iconIndex":97,"name":"Sword","note":"","params":[0,0,10,0,0,0,0,0],"price":500,"wtypeId":1},
{"id":2,"animationId":1,"description":"","etypeId":1,"traits":[{"code":31,"dataId":1,"value":0},{"code":22,"dataId":0,"value":0}],"iconIndex":101,"name":"Dagger","note":"","params":[0,0,10,0,0,0,0,0],"price":500,"wtypeId":2},
{"id":3,"animationId":1,"description":"","etypeId":1,"traits":[{"code":31,"dataId":1,"value":0},{"code":22,"dataId":0,"value":0}],"iconIndex":101,"name":"Axe","note":"","params":[0,0,10,0,0,0,0,0],"price":500,"wtypeId":3}
]